%YAML 1.1
%TAG !u! tag:unity3d.com,2011:
--- !u!1045 &1
EditorBuildSettings:
  m_ObjectHideFlags: 0
  serializedVersion: 2
  m_Scenes:
  - enabled: 1
    path: Assets/Scenes/Home Scene.unity
    guid: 8bab3c464d6653a4784852d712452c64
  - enabled: 1
    path: Assets/Scenes/Levels Scene.unity
    guid: a43c5620a440e274a90bf5f6ca7b81f5
  - enabled: 1
    path: Assets/Scenes/Level 1.unity
    guid: d1c3109bdb54ad54c8a2b2838528e640
  - enabled: 1
    path: Assets/Scenes/Level 2.unity
    guid: 711152bacb2301840bbeee415657cde8
  m_configObjects: {}
